{
  "currentPage": 1,
  "totalPages": 9,
  "totalItems": 144,
  "nextPage": 2,
  "prevPage": null,
  "products": [
    {
      "id": 149,
      "name": "New Era 9Forty",
      "description": "La raya diplomática es para siempre. \r\n\r\nPrepárate para el día del partido con el emblemático estilo de la gorra New Era New York Yankees 9FORTY MLB Flawless Logo. Con el legendario logotipo «NY» representado en una elegante placa de aleación de zinc en la parte delantera, esta gorra rinde homenaje al orgullo atemporal de los Yankees. La bandera New Era bordada con pespuntes en un tono más intenso en el lateral añade un toque de elegancia discreta al diseño, al tiempo que el suave tejido en mezcla de poliéster lleva la comodidad a un nuevo nivel. Adopta el espíritu de los llamados Bronx Bombers y celebra cada jonrón con la gorra New Era New York Yankees 9FORTY MLB Flawless Logo.",
      "price": "29.99",
      "discountPrice": null,
      "brand": "New Era",
      "category": "complementos",
      "sub_category": null,
      "gender": "unisex",
      "material": "",
      "season": null,
      "is_new": true,
      "created_at": "2025-12-03T18:13:18.000Z",
      "color": "Azul Marino",
      "is_active": true,
      "totalStock": 532,
      "image": "https://res.cloudinary.com/dfddbqydp/image/upload/v1764787603/footer-products/vosfi3jemjqt4aq2cc71.png",
      "averageRating": 0,
      "ratingCount": 0
    },
    {
      "id": 146,
      "name": "Nike Back Pack",
      "description": "Pequeña pero poderosa\r\n\r\nNo dejes que el tamaño te engañe: la mochila Nike para niños es la compañera perfecta de juegos de los más pequeños. Esta mochila es perfecta para que jueguen con sus amigos o para llevar sus objetos imprescindibles, porque puede con todo. El espacioso compartimento principal con doble cremallera tiene espacio para su botella de agua o sus snacks favoritos. El bolsillo delantero pequeño, por otro lado, es ideal para encontrar rápidamente esos objetos básicos que siempre llevan consigo. Las correas acolchadas para los hombros aportan una mayor comodidad, al tiempo que su diseño serigrafiado añade diversión al diseño y un look integrado dentro del legado de la marca.",
      "price": "20.00",
      "discountPrice": null,
      "brand": "Nike",
      "category": "complementos",
      "sub_category": "mochilas",
      "gender": "unisex",
      "material": "Sintético",
      "season": "todas",
      "is_new": true,
      "created_at": "2025-11-24T20:17:19.000Z",
      "color": "Estándar",
      "is_active": true,
      "totalStock": 500,
      "image": "https://res.cloudinary.com/dfddbqydp/image/upload/v1764305606/footer-products/1764015439473-415275869.png",
      "averageRating": 0,
      "ratingCount": 0
    },
    {
      "id": 145,
      "name": "Jordan Backpacks",
      "description": "¡Siempre mirando hacia delante!\r\n\r\nProtege todos tus imprescindibles con la bolsa Jordan Backpacks. Esta bolsa, espaciosa y fácil de llevar, presenta un amplio espacio de almacenamiento y unas correas que facilitan la movilidad. Su diseño elegante aporta un estilo moderno y actual cuando sales a la calle.",
      "price": "20.00",
      "discountPrice": null,
      "brand": "Jordan",
      "category": "complementos",
      "sub_category": "mochilas",
      "gender": "unisex",
      "material": "Sintético",
      "season": "todas",
      "is_new": true,
      "created_at": "2025-11-24T20:17:19.000Z",
      "color": "Estándar",
      "is_active": true,
      "totalStock": 500,
      "image": "https://res.cloudinary.com/dfddbqydp/image/upload/v1764305604/footer-products/1764015439365-821751415.png",
      "averageRating": 0,
      "ratingCount": 0
    },
    {
      "id": 144,
      "name": "Under Armour Storm",
      "description": "Protección repelente al agua con gran comodidad\r\nLos guantes Under Armour Storm incorporan tecnología repelente al agua que mantiene tus manos secas sin sacrificar la transpirabilidad. Su tejido elástico y cálido ofrece un ajuste ergonómico perfecto para entrenar o moverte por la ciudad en días de mal tiempo.",
      "price": "25.99",
      "discountPrice": null,
      "brand": "Under Armour",
      "category": "complementos",
      "sub_category": "guantes",
      "gender": "unisex",
      "material": "Sintético",
      "season": "todas",
      "is_new": true,
      "created_at": "2025-11-24T20:17:19.000Z",
      "color": "Estándar",
      "is_active": true,
      "totalStock": 500,
      "image": "https://res.cloudinary.com/dfddbqydp/image/upload/v1764305602/footer-products/1764015439242-109960828.png",
      "averageRating": 0,
      "ratingCount": 0
    },
    {
      "id": 143,
      "name": "Nike Therma",
      "description": "Tecnología térmica para combatir el frío\r\nLos guantes Nike Therma están diseñados para retener el calor corporal incluso en condiciones de bajas temperaturas. Su tejido técnico ofrece aislamiento sin añadir volumen, mientras que los detalles en la palma garantizan agarre y seguridad en cada movimiento.",
      "price": "24.99",
      "discountPrice": null,
      "brand": "Nike",
      "category": "complementos",
      "sub_category": "guantes",
      "gender": "unisex",
      "material": "Sintético",
      "season": "todas",
      "is_new": true,
      "created_at": "2025-11-24T20:17:19.000Z",
      "color": "Gris",
      "is_active": true,
      "totalStock": 23,
      "image": "https://res.cloudinary.com/dfddbqydp/image/upload/v1764305600/footer-products/1764015439128-641428990.png",
      "averageRating": 0,
      "ratingCount": 0
    },
    {
      "id": 142,
      "name": "Nike Knit Tech Grip",
      "description": "Control y agarre en cualquier situación.\r\nLos guantes Nike Knit Tech Grip combinan un tejido cálido con zonas de agarre en la palma que mejoran la sujeción del móvil u otros objetos. Su diseño adaptable y ligero los convierte en una opción ideal para el día a día.",
      "price": "19.99",
      "discountPrice": null,
      "brand": "Nike",
      "category": "complementos",
      "sub_category": "guantes",
      "gender": "unisex",
      "material": "Sintético",
      "season": "todas",
      "is_new": true,
      "created_at": "2025-11-24T20:17:19.000Z",
      "color": "Estándar",
      "is_active": true,
      "totalStock": 26,
      "image": "https://res.cloudinary.com/dfddbqydp/image/upload/v1764305599/footer-products/1764015439015-441054319.png",
      "averageRating": 0,
      "ratingCount": 0
    },
    {
      "id": 140,
      "name": "Nike Peak",
      "description": "Ligereza, abrigo y un acabado premium\r\nEl gorro Nike Peak ofrece un diseño limpio confeccionado en punto suave que aporta calidez sin renunciar a la comodidad. Su ajuste elástico se adapta perfectamente a la cabeza, mientras que el característico detalle Nike añade un toque moderno. Ideal para los días fríos en la ciudad.",
      "price": "27.99",
      "discountPrice": null,
      "brand": "Nike",
      "category": "complementos",
      "sub_category": "gorros",
      "gender": "unisex",
      "material": "Sintético",
      "season": "todas",
      "is_new": true,
      "created_at": "2025-11-24T20:17:18.000Z",
      "color": "Azul",
      "is_active": true,
      "totalStock": 56,
      "image": "https://res.cloudinary.com/dfddbqydp/image/upload/v1764305591/footer-products/1764015438791-258914568.png",
      "averageRating": 0,
      "ratingCount": 0
    },
    {
      "id": 134,
      "name": "New Era Trucker",
      "description": "Yankees para siempre\r\n¡Llamando a todos los aficionados de los Yankees! Prepárate para el día del juego con la gorra snapback New Era New York Yankees MLB Cord 9FORTY A-Frame Trucker. Este snapback de la colección MLB Cord presenta una construcción de pana, haciendo de este accesorio un artículo imprescindible para cada aficionado de los Yankees. La malla del camión en la parte trasera te mantiene cómodo a través de todas las acciones y emociones del partido. El logotipo de los Yankees ofrece un estilo destacado con una energía seria de aficionado. Sal de la gloria de los Yankees con la gorra New Era New York Yankees MLB Cord 9FORTY A-Frame Trucker Snapback.",
      "price": "34.99",
      "discountPrice": null,
      "brand": "New Era",
      "category": "complementos",
      "sub_category": null,
      "gender": "unisex",
      "material": "Sintético",
      "season": "todas",
      "is_new": true,
      "created_at": "2025-11-24T20:17:18.000Z",
      "color": "Blanco",
      "is_active": true,
      "totalStock": 113,
      "image": "https://res.cloudinary.com/dfddbqydp/image/upload/v1764305575/footer-products/1764015438093-571102108.png",
      "averageRating": 0,
      "ratingCount": 0
    },
    {
      "id": 135,
      "name": "Nike Metal Swoosh",
      "description": "Perfección y elegancia\r\nLa gorra Nike Club ofrece un look elegante y estructurado, con una visera precurvada y el inconfundible logotipo Swoosh metálico. Confeccionada en tejido ligero, elimina el sudor, facilitando una rápida evaporación y manteniendo la humedad a raya y la máxima comodidad. El diseño con corona de profundidad media es ideal para diario, y su tira posterior ajustable con cierre de hebilla permite amoldarla a la cabeza a la perfección. Completa tus looks con un toque elegante gracias a la gorra Nike Club.",
      "price": "15.00",
      "discountPrice": null,
      "brand": "Nike",
      "category": "complementos",
      "sub_category": null,
      "gender": "unisex",
      "material": "Sintético",
      "season": "todas",
      "is_new": true,
      "created_at": "2025-11-24T20:17:18.000Z",
      "color": "1",
      "is_active": true,
      "totalStock": 124,
      "image": "https://res.cloudinary.com/dfddbqydp/image/upload/v1764305580/footer-products/1764015438211-68427574.png",
      "averageRating": 0,
      "ratingCount": 0
    },
    {
      "id": 137,
      "name": "Under Armour Iso Chill",
      "description": "Mantén la cabeza fresca\r\nLa gorra ajustable Under Armour ArmourVent está diseñada para mantener el frescor cuando el calor aprieta. Gracias a la avanzada tecnología ArmourVent, permite que la cabeza respire, liberando el exceso de calor mientras bloquea los rayos del sol. Diseñada con una visera precurvada y paneles delanteros estructurados, mantiene su forma, ofreciendo un ajuste elegante y de perfil bajo. La cinta para el sudor Iso-Chill hace su magia, dispersando el calor corporal y dejándote con una sensación fresca y cómoda. Hazte con la gorra ajustable Under Armour ArmourVent para mantener la frescura y el estilo.",
      "price": "15.00",
      "discountPrice": null,
      "brand": "Under Armour",
      "category": "complementos",
      "sub_category": null,
      "gender": "unisex",
      "material": "Sintético",
      "season": "todas",
      "is_new": true,
      "created_at": "2025-11-24T20:17:18.000Z",
      "color": "Celeste",
      "is_active": true,
      "totalStock": 47,
      "image": "https://res.cloudinary.com/dfddbqydp/image/upload/v1764305585/footer-products/1764015438449-619898160.png",
      "averageRating": 0,
      "ratingCount": 0
    },
    {
      "id": 141,
      "name": "Nike Club Fleece",
      "description": "Calidez y suavidad para el invierno\r\nLos guantes Nike Club Fleece están fabricados con un tejido interior suave que mantiene tus manos calientes sin perder movilidad. Su diseño ligero y elástico es ideal para el uso diario, proporcionando comodidad y protección en los días fríos.",
      "price": "34.99",
      "discountPrice": null,
      "brand": "Nike",
      "category": "complementos",
      "sub_category": "guantes",
      "gender": "unisex",
      "material": "Sintético",
      "season": "todas",
      "is_new": true,
      "created_at": "2025-11-24T20:17:18.000Z",
      "color": "Estándar",
      "is_active": true,
      "totalStock": 10,
      "image": "https://res.cloudinary.com/dfddbqydp/image/upload/v1764305596/footer-products/1764015438906-825792125.png",
      "averageRating": 0,
      "ratingCount": 0
    },
    {
      "id": 138,
      "name": "Adidas Cuff Knit",
      "description": "Calidez y estilo en los días fríos\r\nEl gorro adidas Cuff Knit está confeccionado con un tejido suave y cálido que mantiene la cabeza protegida en invierno. Su vuelta acanalada añade estilo y ofrece un ajuste seguro. Un accesorio cómodo, versátil y perfecto para tus looks urbanos o deportivos.",
      "price": "22.99",
      "discountPrice": null,
      "brand": "Adidas",
      "category": "complementos",
      "sub_category": "gorros",
      "gender": "unisex",
      "material": "Sintético",
      "season": "todas",
      "is_new": true,
      "created_at": "2025-11-24T20:17:18.000Z",
      "color": "Burdeos",
      "is_active": true,
      "totalStock": 56,
      "image": "https://res.cloudinary.com/dfddbqydp/image/upload/v1764305586/footer-products/1764015438559-610996371.png",
      "averageRating": 0,
      "ratingCount": 0
    },
    {
      "id": 125,
      "name": "Puma Mayze Stack",
      "description": "¡Son INCREÍBLES!\r\n\r\nNos pediste comodidad excepcional y un estilo increíble, y las sandalias PUMA Mayze Stack Injex te ofrecen exactamente eso. Tomando como referencia la mítica silueta Mayze, estas sandalias darán un nuevo aire a todos tus looks diarios. La suela y la tira superior se unen en una construcción de EVA moldeada para ofrecer la máxima comodidad a tus pies. La suela exterior de EVA confiere una gran adherencia que te permite pisar con seguridad al ritmo de tu música favorita junto a la piscina.",
      "price": "45.00",
      "discountPrice": null,
      "brand": "Puma",
      "category": "zapatillas",
      "sub_category": null,
      "gender": "mujer",
      "material": "Sintético",
      "season": "todas",
      "is_new": true,
      "created_at": "2025-11-24T20:17:17.000Z",
      "color": "Blanco",
      "is_active": true,
      "totalStock": 248,
      "image": "https://res.cloudinary.com/dfddbqydp/image/upload/v1764305542/footer-products/1764015437010-160263683.png",
      "averageRating": 0,
      "ratingCount": 0
    },
    {
      "id": 128,
      "name": "Puma Speedcat",
      "description": "De la pista a la pasarela\r\nLas PUMA Speedcat OG transmiten décadas de pasión automovilística en cada puntada. Su parte superior en piel de diseño aerodinámico, su puntera redondeada y la inconfundible Formstrip en ante crean un look atemporal y atrevido. La entresuela IMEVA ofrece comodidad y ligereza, al tiempo que la suela de goma garantiza una tracción constante, tanto en la pista de carreras como en la pasarela. Desde el felino de PUMA bordado en la puntera hasta su elegante legado de carreras, cada detalle habla de velocidad y estilo. Cálzate las PUMA Speedcat OG y ¡a volar!",
      "price": "129.99",
      "discountPrice": null,
      "brand": "Puma",
      "category": "zapatillas",
      "sub_category": null,
      "gender": "mujer",
      "material": "Sintético",
      "season": "todas",
      "is_new": true,
      "created_at": "2025-11-24T20:17:17.000Z",
      "color": "Blanco MarróN",
      "is_active": true,
      "totalStock": 610,
      "image": "https://res.cloudinary.com/dfddbqydp/image/upload/v1764305547/footer-products/1764015437364-366877278.png",
      "averageRating": 0,
      "ratingCount": 0
    },
    {
      "id": 127,
      "name": "Puma Palermo",
      "description": "Colma de felicidad a tus pies\r\n\r\nApuesta por el estilo de las PUMA Palermo Moda. Caracterizadas por su parte superior de piel suave y granulada, empeine, ojales y talón con refuerzos de ante, y solapa decorativa en los paneles laterales, estas zapatillas ofrecen el equilibrio perfecto entre elegancia y durabilidad. La base sintética de la puntera y de los cuartos, la tira PUMA Formstrip y la lengüeta añaden un toque elegante, mientras que la plantilla y el forro sintéticos garantizan la máxima comodidad. Las Palermo Moda, que se completan una entresuela de goma para ofrecer un apoyo y sujeción inmejorables, son la unión perfecta entre diseño clásico y funcionalidad moderna.",
      "price": "50.00",
      "discountPrice": null,
      "brand": "Puma",
      "category": "zapatillas",
      "sub_category": null,
      "gender": "mujer",
      "material": "Sintético",
      "season": "todas",
      "is_new": true,
      "created_at": "2025-11-24T20:17:17.000Z",
      "color": "Azul",
      "is_active": true,
      "totalStock": 250,
      "image": "https://res.cloudinary.com/dfddbqydp/image/upload/v1764305545/footer-products/1764015437244-484026505.png",
      "averageRating": 0,
      "ratingCount": 0
    },
    {
      "id": 126,
      "name": "Puma Mostro",
      "description": "Un icono que no pasa desapercibido. Las Mostro OG son una fusión audaz entre deporte y diseño rompedor: su nombre (“Mostro” en italiano) ya adelanta su carácter monstruoso, inspirado en dos mundos distintos.\r\nSegún Puma, su silueta combina la velocidad de los tacos de sprint de los años 60 con la libertad y flexibilidad de los zapatos de surf de los 80. La suela es una de sus señas: tiene tacos (o “púas”) que sobresalen y dan un look escultural y robusto.",
      "price": "60.00",
      "discountPrice": null,
      "brand": "Puma",
      "category": "zapatillas",
      "sub_category": null,
      "gender": "mujer",
      "material": "Sintético",
      "season": "todas",
      "is_new": true,
      "created_at": "2025-11-24T20:17:17.000Z",
      "color": "Negro",
      "is_active": true,
      "totalStock": 280,
      "image": "https://res.cloudinary.com/dfddbqydp/image/upload/v1764305544/footer-products/1764015437124-724315274.png",
      "averageRating": 0,
      "ratingCount": 0
    }
  ]
}